{
    "alias": "raidiam-client-payments-only",
    "description": "raidiam mock bank payments phase 1 automated test (mtls client auth)",
    "server": {
        "discoveryUrl": "https://auth.mockbank.poc.raidiam.io/.well-known/openid-configuration"
    },
    "client": {
        "jwks": {
            "keys": [
                {
                    "p": "_QaFFuyZriEWtbiKexy7pIYicgU0ePMepvyNuiiFqlsUFQ24q9gp_iWECDhi8qqss__i1LW_eHQATKWfqUc6HdDY-ickJXvVktrQiT-buvJ24iTtK_NooPMKQW976NIX39_sEPJ6ceo9ZDFxTTCkmJus3eXDJmRZT2YzSZJcvcc",
                    "kty": "RSA",
                    "q": "3x1_dyovnWXSr7y7ufe6AHUV0kHBYVrGW2vdNZxKrrgBW5r2mm93NnHsrG-mJlzW7kG_jR41bWf74sucGdwXTx96riRVy8bov9SzPCDl9_QCHzPpqZOxjngfzQYq1L1qJA2BAie0Sq6YZhgLJ1fWPLutEO5soIYAkLXSJ9IVb00",
                    "d": "ZvivfZxJMbbdTQmxyE0lmE6ZuH8cMQOLyZxdaA5pNwm7ZEnPBEftZs8aR9ijhCDWMieui3h--rXwlXqbEm3g1sVgQ-WKTFV-NLKaJC1h-EU5HKdlOflstr7x57zhKp60ZIK69GyEXyJccUfzcD32u8raec9NplQ2MqS5MA1lnQFlocFoX1RNU4tSpEdJQq2UzqtX5WPhc88A6fTc1xu2fA5wyxzZu7fUjIETzLimcu-dDaEvvgm7c_A1ulm8EQuCN10k3FrIIe9RfuXHyxh9Rcd0aiIP9qwitxd5Cl0io7zby8MBIAaSei2co7y4tciBt4AfnzpBlGbtjgfr2gxD0Q",
                    "e": "AQAB",
                    "alg": "PS256",
                    "use": "sig",
                    "kid": "X5d4vFYfLxaG1gg8_l3bFYFhUaUVmE6PaEsRWX2EYqM",
                    "qi": "eHhOb5NUDfMGXwNscjEcMrMFS425qsoJAXfGJ10hm8svZOkNYgVpb7Hs7oT8XytanRl0Gk8gKH0yhvya65B5ipyby17uBMkikNN-EeYoY2AkvEfM_nO0dvHbDdF11rkM5Q_SEDlGmojxnx4_Euj8WeuSgcwiCQkR23aZlQGx1Mg",
                    "dp": "bQ9aXj8tHnj0qO8aAWapGokWX78OlvNzytYg4JSGyJ7pUQnRB4Ds2Lai6kgjniUiu5MX2kdceDbHykG5R-WDj0Ztv6UPV3jA3cOjDwVzwmiwBVmVQNRxzK31Ra8f4YJs9_o0bjmVvXQRchY9l9_Xkk_Hev2F2A540Fhk0tlbUBE",
                    "dq": "XPYDZ_kxwZjtQb-XUBLBcvNV1jcDhba2stysXGv0SfvsxOg6G3qZ5xtsiyQxzAYen0LRttCBXkZXEtXXAodLRvJMwUXuYWtNCrBqxYDHkJogUDPnBXq-Hig6x8fsDJunH8JooCc-3WcFpHQcIZZdcwyXPVi59eAfWCwJlgHYYHk",
                    "n": "3IXVqA9zCrmaz30WWjzZexdSuhagP_oVfgB-Y5S7XXeHhU4tho7c3wcNhsrGCKLYSf_47rV78-2OfhPY9WrSJVyqIXoaniwoTnD9splF90J7yog9LgP4kqkWl6wm8gdR5C-UC4Gnl0D2cZKnE6MZ7k_b5nM0ZfC-7H_bO13B4aYpu069th7hFWGK7ps65uiDxcQGYP3oSeqahE5qwfUef2QMkhyVtM_nWP9OVAzOGtJ8km4TdCrq9aF78No9u2YQuaUOJgeOnwKMBjmgEwcuaQe9DEQFXhzBtRmPlml2pTy2QDvxe1HgOTOsnh9igFvX70AGroY3PFY-lJAxC4Fd2w"
                }
            ]
        },
        "client_id": "3GekrAN0LmPqm8Ub1q80x",
        "org_jwks": {
            "keys": [
                {
                    "p": "_QaFFuyZriEWtbiKexy7pIYicgU0ePMepvyNuiiFqlsUFQ24q9gp_iWECDhi8qqss__i1LW_eHQATKWfqUc6HdDY-ickJXvVktrQiT-buvJ24iTtK_NooPMKQW976NIX39_sEPJ6ceo9ZDFxTTCkmJus3eXDJmRZT2YzSZJcvcc",
                    "kty": "RSA",
                    "q": "3x1_dyovnWXSr7y7ufe6AHUV0kHBYVrGW2vdNZxKrrgBW5r2mm93NnHsrG-mJlzW7kG_jR41bWf74sucGdwXTx96riRVy8bov9SzPCDl9_QCHzPpqZOxjngfzQYq1L1qJA2BAie0Sq6YZhgLJ1fWPLutEO5soIYAkLXSJ9IVb00",
                    "d": "ZvivfZxJMbbdTQmxyE0lmE6ZuH8cMQOLyZxdaA5pNwm7ZEnPBEftZs8aR9ijhCDWMieui3h--rXwlXqbEm3g1sVgQ-WKTFV-NLKaJC1h-EU5HKdlOflstr7x57zhKp60ZIK69GyEXyJccUfzcD32u8raec9NplQ2MqS5MA1lnQFlocFoX1RNU4tSpEdJQq2UzqtX5WPhc88A6fTc1xu2fA5wyxzZu7fUjIETzLimcu-dDaEvvgm7c_A1ulm8EQuCN10k3FrIIe9RfuXHyxh9Rcd0aiIP9qwitxd5Cl0io7zby8MBIAaSei2co7y4tciBt4AfnzpBlGbtjgfr2gxD0Q",
                    "e": "AQAB",
                    "alg": "PS256",
                    "use": "sig",
                    "kid": "X5d4vFYfLxaG1gg8_l3bFYFhUaUVmE6PaEsRWX2EYqM",
                    "qi": "eHhOb5NUDfMGXwNscjEcMrMFS425qsoJAXfGJ10hm8svZOkNYgVpb7Hs7oT8XytanRl0Gk8gKH0yhvya65B5ipyby17uBMkikNN-EeYoY2AkvEfM_nO0dvHbDdF11rkM5Q_SEDlGmojxnx4_Euj8WeuSgcwiCQkR23aZlQGx1Mg",
                    "dp": "bQ9aXj8tHnj0qO8aAWapGokWX78OlvNzytYg4JSGyJ7pUQnRB4Ds2Lai6kgjniUiu5MX2kdceDbHykG5R-WDj0Ztv6UPV3jA3cOjDwVzwmiwBVmVQNRxzK31Ra8f4YJs9_o0bjmVvXQRchY9l9_Xkk_Hev2F2A540Fhk0tlbUBE",
                    "dq": "XPYDZ_kxwZjtQb-XUBLBcvNV1jcDhba2stysXGv0SfvsxOg6G3qZ5xtsiyQxzAYen0LRttCBXkZXEtXXAodLRvJMwUXuYWtNCrBqxYDHkJogUDPnBXq-Hig6x8fsDJunH8JooCc-3WcFpHQcIZZdcwyXPVi59eAfWCwJlgHYYHk",
                    "n": "3IXVqA9zCrmaz30WWjzZexdSuhagP_oVfgB-Y5S7XXeHhU4tho7c3wcNhsrGCKLYSf_47rV78-2OfhPY9WrSJVyqIXoaniwoTnD9splF90J7yog9LgP4kqkWl6wm8gdR5C-UC4Gnl0D2cZKnE6MZ7k_b5nM0ZfC-7H_bO13B4aYpu069th7hFWGK7ps65uiDxcQGYP3oSeqahE5qwfUef2QMkhyVtM_nWP9OVAzOGtJ8km4TdCrq9aF78No9u2YQuaUOJgeOnwKMBjmgEwcuaQe9DEQFXhzBtRmPlml2pTy2QDvxe1HgOTOsnh9igFvX70AGroY3PFY-lJAxC4Fd2w"
                }
            ]
        }
    },
    "mtls": {
        "cert": "-----BEGIN CERTIFICATE-----\nMIIHDDCCBfSgAwIBAgIUYvUFpecbRLx1Dt2CwJQpQW7x7AowDQYJKoZIhvcNAQEL\nBQAwcTELMAkGA1UEBhMCQlIxHDAaBgNVBAoTE09wZW4gQmFua2luZyBCcmFzaWwx\nFTATBgNVBAsTDE9wZW4gQmFua2luZzEtMCsGA1UEAxMkT3BlbiBCYW5raW5nIFNB\nTkRCT1ggSXNzdWluZyBDQSAtIEcxMB4XDTIxMTEwMjE4NTMwMFoXDTIyMTIwMjE4\nNTMwMFowggEnMQswCQYDVQQGEwJCUjELMAkGA1UECBMCU1AxEjAQBgNVBAcTCVNh\nbyBQYXVsbzEcMBoGA1UEChMTT3BlbiBCYW5raW5nIEJyYXNpbDEtMCsGA1UECxMk\nNzRlOTI5ZDktMzNiNi00ZDg1LThiYTctYzE0NmM4NjdhODE3MScwJQYDVQQDEx50\ncHAuc2FuZGJveC5vcGVuYmFua2luZy5vcmcuYnIxFzAVBgNVBAUTDjQzMTQyNjY2\nMDAwMTk3MTQwMgYKCZImiZPyLGQBARMkMzY4YmNlZWYtNjA5Ni00ZTFhLWE3MDIt\nNjRjMDdkMTJjOThhMR0wGwYDVQQPExRQcml2YXRlIE9yZ2FuaXphdGlvbjETMBEG\nCysGAQQBgjc8AgEDEwJCUjCCASIwDQYJKoZIhvcNAQEBBQADggEPADCCAQoCggEB\nALeG7Q28qLiQMnIhaOMVIQzkhPxy9ARpHs6Ro8wrZiagAu3KN7rYaOBiRxRKCa9B\nfCnjmM7e3bW956/+nfp0wque2FHeiw+xhYyRzkP0kqlwiS+ctj6XrO/fv6zBMdMZ\nGg5qYo2WaKnovouVlmSsyXGKkf5PSBl0po2fc0/G4lKF5znKRItDlnEFJenUSqmo\n/fFOzP18WwefUHlF21eZWO9Zj7vUtbSoVV9wBB2yw3V8V2iU53oy/N5LKgxdauB2\nQ+71oZIterf83Cu4yLZ0qVZFRwAt7ITJjnkXh7kUXXztHSUxb3lzhp9GRXWMn0eB\njZbyyn8SbkqUwfSGYYl9W0sCAwEAAaOCAuIwggLeMAwGA1UdEwEB/wQCMAAwHwYD\nVR0jBBgwFoAUhn9YrRf1grZOtAWz+7DOEUPfTL4wTAYIKwYBBQUHAQEEQDA+MDwG\nCCsGAQUFBzABhjBodHRwOi8vb2NzcC5zYW5kYm94LnBraS5vcGVuYmFua2luZ2Jy\nYXNpbC5vcmcuYnIwSwYDVR0fBEQwQjBAoD6gPIY6aHR0cDovL2NybC5zYW5kYm94\nLnBraS5vcGVuYmFua2luZ2JyYXNpbC5vcmcuYnIvaXNzdWVyLmNybDAOBgNVHQ8B\nAf8EBAMCBaAwEwYDVR0lBAwwCgYIKwYBBQUHAwIwHQYDVR0OBBYEFJtxiQ1FP67l\nhmQARlLzBHqW9yTzMCkGA1UdEQQiMCCCHnRwcC5zYW5kYm94Lm9wZW5iYW5raW5n\nLm9yZy5icjCCAaEGA1UdIASCAZgwggGUMIIBkAYKKwYBBAGDui9kATCCAYAwggE2\nBggrBgEFBQcCAjCCASgMggEkVGhpcyBDZXJ0aWZpY2F0ZSBpcyBzb2xlbHkgZm9y\nIHVzZSB3aXRoIFJhaWRpYW0gU2VydmljZXMgTGltaXRlZCBhbmQgb3RoZXIgcGFy\ndGljaXBhdGluZyBvcmdhbmlzYXRpb25zIHVzaW5nIFJhaWRpYW0gU2VydmljZXMg\nTGltaXRlZHMgVHJ1c3QgRnJhbWV3b3JrIFNlcnZpY2VzLiBJdHMgcmVjZWlwdCwg\ncG9zc2Vzc2lvbiBvciB1c2UgY29uc3RpdHV0ZXMgYWNjZXB0YW5jZSBvZiB0aGUg\nUmFpZGlhbSBTZXJ2aWNlcyBMdGQgQ2VydGljaWNhdGUgUG9saWN5IGFuZCByZWxh\ndGVkIGRvY3VtZW50cyB0aGVyZWluLjBEBggrBgEFBQcCARY4aHR0cDovL2Nwcy5z\nYW5kYm94LnBraS5vcGVuYmFua2luZ2JyYXNpbC5vcmcuYnIvcG9saWNpZXMwDQYJ\nKoZIhvcNAQELBQADggEBANFOZt51FHjK64n5MbZkXqXef/9UCJx6QR+Hnu35tDmX\n7qhq5FE8c1JC4LUNbT5i2rmQSJctlab2nyTb89UsrLj+MIF7Do0jV3dSmfE9ACbk\n7QluLscNywUNDElBCMyR5J6OB4MpvfPMXuakDGjSuOUJzD/SLBj7dndaAEEdcVnU\n9koP/ogddAjT5zPmAEUh7/dD2Z8q7J6emW1wqlM6qkXiPQaPpvwhid07LK2/kM/d\nM4jV1Zm6m/5lacLiQmUJSf2rP94Ub29OXzJHjf+vvbhjdtReplWqNx4jzlZRbO1q\nqcJMtpaq+5UaVsptwcG5nwrp4goqNeDx12vO32+hbmo=\n-----END CERTIFICATE-----",
        "key": "-----BEGIN PRIVATE KEY-----\nMIIEvQIBADANBgkqhkiG9w0BAQEFAASCBKcwggSjAgEAAoIBAQC3hu0NvKi4kDJy\nIWjjFSEM5IT8cvQEaR7OkaPMK2YmoALtyje62GjgYkcUSgmvQXwp45jO3t21veev\n/p36dMKrnthR3osPsYWMkc5D9JKpcIkvnLY+l6zv37+swTHTGRoOamKNlmip6L6L\nlZZkrMlxipH+T0gZdKaNn3NPxuJShec5ykSLQ5ZxBSXp1EqpqP3xTsz9fFsHn1B5\nRdtXmVjvWY+71LW0qFVfcAQdssN1fFdolOd6MvzeSyoMXWrgdkPu9aGSLXq3/Nwr\nuMi2dKlWRUcALeyEyY55F4e5FF187R0lMW95c4afRkV1jJ9HgY2W8sp/Em5KlMH0\nhmGJfVtLAgMBAAECggEBAKeNxrUI7dz6wSOTvwe7TZ5Qr90vMfso4dhj/PA1GyDe\na24fdbvfQfjBoPU0Fx1rIum3gdY0gKQhifoS8rYrjWNUNVihXcJpJ21L3M4L5y5M\nsOLIJ1aD8X5af8s/4rZAr5pDpFBx5oJhHD2hx1mIqq0/fsR4K3IaHskjrwpBoHUH\ngEoOFZQbfTo3BBI+IZaRnfXg3mgitZ/28QH6uwtQvxTyGr2vTjElqzTNHuOZKkrh\njjoFWR0dBNJky/FtXddeDzJCkTID3Rkr7wzWlntEw4dsR2jFct59VQ+i0x/KKyI8\nQqqGWrqZL4oxvv9C/TaJ1VQO4HA/bIe8IRJVGxWzU7kCgYEA6aDtpYw4nMp68Jyo\n/ymE3D+aB7JZOMwJL+x2ocHgeESGeZxq7MoNSGei7+zWR9aemNwqjL0ZSbi2A8ty\npcFtcZ7EdlpB5VUG9eZI1pl3MtOAs6xcoHqEVm9dqGyAWw77ilj0rJqZyxgq+4y2\n7l5KlMnxuo9GEqXbGP8KsBr5pqUCgYEAyRnUTQJmuTmbNt3FcbSKO7f3Z2vqN4QK\nq9+l6THK7EWoJvoXTHfE8NAck3z9XlVh3tyzUQDArhZ30X+SOl9YnVN1J0eXqKcg\nbXZdRc6cHQYLP+3geGwLJLhph7sur0Gq0a055Ls6Ox4Wdi8mHiDAHRZ9+R9w2DAV\njCmBb/uwRy8CgYBRJXdFl+WV9/IpnpBISDiAc4rhf33j72KFhcFSv89ilpKKrNyq\nsCda7bw3T3DB9PaTK22QAqJE6+Y0fTauAfgsjbO5U/ItYJIRWNIVz6oKOlIqlgR6\nLPPIPdgvBriyaArQa8NYLD6cvyE2zBJByvhmo5nVbawuD/OAxB0HO+dYjQKBgFvM\n87I332a8mlNAh6pxTQ0X3NOUWrX/C9QL4zQBq+2RmsI4NjyNDBUWG4VkcFEIzwWq\nYB0hJ9QQo5+6Caml7tDa0UceEmhF6rKtbsS4HWHOaYJEd8zhHXEk0d/JHfWZF35i\nAmSc52cnQ/+tZEwqjSh6JQV9SckWoi96nwDct0q3AoGASkv35OF4cVFvIM570m8v\nfMfALQWfafoJn/gNV9JIru1d4QsS40eaKMtbQkkgbIZoRkRd9bYrrqcLlOzg34CG\nTwh9NPEmbJUe7wxwcQuh9wrJ5cGCkNfOuwwK/dTkk2cPGdveCKzaqA9Wgo1lV3pK\noWvBNoS85NEcmu9OX90rq3Q=\n-----END PRIVATE KEY-----",
        "ca": "-----BEGIN CERTIFICATE-----\nMIIEajCCA1KgAwIBAgIUdIYzEFdw7QJcrySyq6IiEwZfTfAwDQYJKoZIhvcNAQEL\nBQAwazELMAkGA1UEBhMCQlIxHDAaBgNVBAoTE09wZW4gQmFua2luZyBCcmFzaWwx\nFTATBgNVBAsTDE9wZW4gQmFua2luZzEnMCUGA1UEAxMeT3BlbiBCYW5raW5nIFJv\nb3QgU0FOREJPWCAtIEcxMB4XDTIwMTIxMTEwMDAwMFoXDTIzMTIxMTEwMDAwMFow\ncTELMAkGA1UEBhMCQlIxHDAaBgNVBAoTE09wZW4gQmFua2luZyBCcmFzaWwxFTAT\nBgNVBAsTDE9wZW4gQmFua2luZzEtMCsGA1UEAxMkT3BlbiBCYW5raW5nIFNBTkRC\nT1ggSXNzdWluZyBDQSAtIEcxMIIBIjANBgkqhkiG9w0BAQEFAAOCAQ8AMIIBCgKC\nAQEA6fX+272mHX5QAcDaWkVHFWjnDIcORNUJU3OuNyeuOYhlvXJWydrXe3O+cV+P\nS39faMj/nfem3GfJBE7Xn0bWA/8ksxSfrg1BUBJDge4YBBw+VflI3A0g1fk9wJ3H\nGInsvV4serRJ/ISJTfs0uRNugX+RrbkT/T0tup4vGd3Kl2sbwUdDjokuJNJHANeO\nDRkQ+ra+9Wht71FBlc07yPf7qtpaWHm6aS3s47OJD35ixkG4xiZuHsScxcVtlo1V\nW98P2cQfH9H2lll4wWlPTVHpPThB2EYrPhwcxDh8kHkkOHNkyHO/fYM47u7H4VeQ\nV75LXWKa7iWmZg+WhFb8TXSr/wIDAQABo4H/MIH8MA4GA1UdDwEB/wQEAwIBBjAP\nBgNVHRMBAf8EBTADAQH/MB0GA1UdDgQWBBSGf1itF/WCtk60BbP7sM4RQ99MvjAf\nBgNVHSMEGDAWgBSHE+yWPmLsIRwMSlY68iUM45TpyzBMBggrBgEFBQcBAQRAMD4w\nPAYIKwYBBQUHMAGGMGh0dHA6Ly9vY3NwLnNhbmRib3gucGtpLm9wZW5iYW5raW5n\nYnJhc2lsLm9yZy5icjBLBgNVHR8ERDBCMECgPqA8hjpodHRwOi8vY3JsLnNhbmRi\nb3gucGtpLm9wZW5iYW5raW5nYnJhc2lsLm9yZy5ici9pc3N1ZXIuY3JsMA0GCSqG\nSIb3DQEBCwUAA4IBAQBy4928pVPeiHItbneeOAsDoc4Obv5Q4tn0QpqTlSeCSBbH\nIURfEr/WaS8sv0JTbIPQEfiO/UtaN8Qxh7j5iVqTwTwgVaE/vDkHxGOen5YxAuyV\n1Fpm4W4oQyybiA6puHEBcteuiYZHppGSMus3bmFYTPE+9B0+W914VZeHDujJ2Y3Y\nMc32Q+PC+Zmv8RfaXp7+QCNYSXR5Ts3q3IesWGmlvAM5tLQi75JmzdWXJ1uKU4u3\nNrw5jY4UaOlvB5Re2BSmcjxdLT/5pApzkS+tO6lICnPAtk/Y6dOJ0YxQBMImtliY\np02yfwRaqP8WJ4CnwUHil3ZRt8U9I+psU8b4WV/3\n-----END CERTIFICATE-----\n-----BEGIN CERTIFICATE-----\nMIIDpjCCAo6gAwIBAgIUS3mWeRx1uG/SMl/ql55VwRtNz7wwDQYJKoZIhvcNAQEL\nBQAwazELMAkGA1UEBhMCQlIxHDAaBgNVBAoTE09wZW4gQmFua2luZyBCcmFzaWwx\nFTATBgNVBAsTDE9wZW4gQmFua2luZzEnMCUGA1UEAxMeT3BlbiBCYW5raW5nIFJv\nb3QgU0FOREJPWCAtIEcxMB4XDTIwMTIxMTEwMDAwMFoXDTI1MTIxMDEwMDAwMFow\nazELMAkGA1UEBhMCQlIxHDAaBgNVBAoTE09wZW4gQmFua2luZyBCcmFzaWwxFTAT\nBgNVBAsTDE9wZW4gQmFua2luZzEnMCUGA1UEAxMeT3BlbiBCYW5raW5nIFJvb3Qg\nU0FOREJPWCAtIEcxMIIBIjANBgkqhkiG9w0BAQEFAAOCAQ8AMIIBCgKCAQEAp50j\njNh0wu8ioziC1HuWqOfgXwxeiePiRGw5tKDqKIbC7XV1ghEcDiymTHHWWJSQ1LEs\nmYpZVwaos5Mrz2xJwytg8K5eqFqa7QvfOOul29bnzEFk+1gX/0nOYws3Lba9E7S+\nuPaUmfElF4r2lcCNL2f3F87RozqZf+DQBdGUzAt9n+ipY1JpqfI3KF/5qgRkPoIf\nJD+aj2Y1D6eYjs5uMRLU8FMYt0CCfv/Ak6mq4Y9/7CaMKp5qjlrrDux00IDpxoXG\nKx5cK0KgACb2UBZ98oDQxcGrbRIyp8VGmv68BkEQcm7NljP863uBVxtnVTpRwQ1x\nwYEbmSSyoonXy575wQIDAQABo0IwQDAOBgNVHQ8BAf8EBAMCAQYwDwYDVR0TAQH/\nBAUwAwEB/zAdBgNVHQ4EFgQUhxPslj5i7CEcDEpWOvIlDOOU6cswDQYJKoZIhvcN\nAQELBQADggEBAFoYqwoH7zvr4v0SQ/hWx/bWFRIcV/Rf6rEWGyT/moVAEjPbGH6t\nyHhbxh3RdGcPY7Pzn797lXDGRu0pHv+GAHUA1v1PewCp0IHYukmN5D8+Qumem6by\nHyONyUASMlY0lUOzx9mHVBMuj6u6kvn9xjL6xsPS+Cglv/3SUXUR0mMCYf963xnF\nBIRLTRlbykgJomUptVl/F5U/+8cD+lB/fcZPoQVI0kK0VV51jAODSIhS6vqzQzH4\ncpUmcPh4dy+7RzdTTktxOTXTqAy9/Yx+fk18O9qSQw1MKa9dDZ4YLnAQS2fJJqIE\n1DXIta0LpqM4pMoRMXvp9SLU0atVZLEu6Sc=\n-----END CERTIFICATE-----\n"
    },
    "directory": {
        "keystore": "https://keystore.sandbox.directory.openbankingbrasil.org.br/",
        "client_id": "QjRzruzFWi_U_tMahlz01"
    },
    "resource": {
        "resourceUrl": "https://matls-api.mockbank.poc.raidiam.io",
        "consentUrl": "https://matls-api.mockbank.poc.raidiam.io/payments/v1/consents",
        "brazilCpf": "48847377765",
        "brazilPaymentConsent": {
            "data": {
                "loggedUser": {
                    "document": {
                        "identification": "76109277673",
                        "rel": "CPF"
                    }
                },
                "creditor": {
                    "personType": "PESSOA_NATURAL",
                    "cpfCnpj": "48847377765",
                    "name": "Marco Antonio de Brito"
                },
                "payment": {
                    "type": "PIX",
                    "date": "2021-01-01",
                    "currency": "BRL",
                    "amount": "100000.12",
                    "details": {
                        "localInstrument": "DICT",
                        "proxy": "12345678901",
                        "creditorAccount": {
                            "ispb": "12345678",
                            "issuer": "1774",
                            "number": "1234567890",
                            "accountType": "CACC"
                        }
                    }
                },
                "debtorAccount": {
                    "ispb": "12345678",
                    "issuer": "6272",
                    "number": "94088392",
                    "accountType": "CACC"
                }
            }
        },
        "brazilPixPayment": {
            "data": {
                "localInstrument": "DICT",
                "payment": {
                    "amount": "100000.12",
                    "currency": "BRL"
                },
                "creditorAccount": {
                    "ispb": "12345678",
                    "issuer": "1774",
                    "number": "1234567890",
                    "accountType": "CACC"
                },
                "cnpjInitiator": "60545350000165",
                "remittanceInformation": "Pagamento da nota XPTO035-002.",
                "proxy": "12345678901"
            }
        },
        "brazilOrganizationId": "74e929d9-33b6-4d85-8ba7-c146c867a817"
    },
    "client2": {
        "client_id": "J_yn-09xqMny_1cSEcQa_",
        "jwks": {
            "keys": [
                {
                    "kty": "RSA",
                    "kid": "j0pZ6CWi2LVZUnMFxrEVtJzEQPf8R3y53810w1nPCHk",
                    "alg": "PS256",
                    "n": "uw3GuWSlkk0mxoj9oytKfaP1KI3yiPJJBkvUAeDkDmk3hzhdDPIMaUB6mEfJYTrMax9gdTgJ22CcglvPwFGY2d5VOi5v88qJMPKpxnacM7oGh94fX-gcizCQo9yMv2Uocnfs40weDgXfZfl0AlW61FYTY19eKZW7XpPoqYI9rnAJkXOJkTPw4T1VBS9mhXj0njDHs-AzOzLatiGrUiJt0M9ioLSmqk8UP6T5-IjPFlQKGYvGWL8WoatNChcWD1mVT-TXvfnqjDZRs6zz74abGptfCm-ksa5W-0aqc7Y6YK0Js_iSD82svNmrB88k-q3MTkR4hpvwCMh6AGDz3nv99w",
                    "e": "AQAB",
                    "d": "GKAzrWymr6AgnrqiSb0FTY0sVW56o7TiEEYjXyvwWkVX3iF5fp7PK3wlp66rwHUxPFkhJc1-3rbVZAQaUcNsUCKJLeO3MW1UqnEIEOzEm7q96V1A3Ct-toRqRmhez0POE2Ped_4pZsc3JgG1WClZM2Mxoj-H8gmYZVcrpkVTQYec3HiyjldEbLXglZUURzSfa-sY2X0tham978ulpAkot6jLJw-VExS1UjmcxUSKntYhuhLTXdmtH6gQinYp-seiBeZUhdYMyeYnJzG1swuOzUB71Qw6cOZwjLADfr8FxllJ9PCjaUsnTu2c6urCoTbrn0UkmF-sJMKZx2-a4iMrAQ",
                    "p": "2qQxBEkiXZLAEvMFNN8ysHKrmvMqBJeQiaiY2aYpq057N5wQvKNSohzwMUVJncXxxfjyb2jfU6mT5I2r5oS8yez_EefF2Wz0omwWyGJmpMGJ8WYQgV6HbczZrOUQoR0gUVQbk5QzCCz7fY9Pvw4T8T04tnPWG6DJFBJEvx0IYKE",
                    "q": "2wPh0pKqmEq95vAsCaUPmBAl9814I9-XSnrLefljjW7wRZuGPUOUlgJ0uYq8pO4XepjPD3g11mTFJ5wlRKObWLFWNnZZfjGQslNPhupBBSjI_9CFIb-aOmL8WsKsleZpOY30Pt7drlnW8UhSXwqU9wLH_nArK4HKCLQIb5Inn5c",
                    "dp": "FUO-2LHcO8mYEL--E-RZY7vjYNChl4y-LAVPyGtWxih952ywXAhucwHpgoFApa2o1B5gReGnRtXJYoM84tCqI-F-9Vjbb0gfiuSEWrznSsLgDbBljo-JEG7KBPzKX0Eb8Y0CmZniVLs7Qnz7vpM58U6JA4XEny9GH0OfmA7Uz8E",
                    "dq": "o_b8EVGMNgd-tG4KCg5w5j7wrdw9nV2_PhtASkjSpwfvCa2tiiAWFVgxWtbq8-7r1PShz8sHQ0Kd91GG9SQnIPdiu9NOnJMu6NJGL5MgqmQmVp4djW6MYDnLA4fK_U5KaLRFruvaurS3nluuj0i0zVhfsbT4HNJGFs3xotWgpHE",
                    "qi": "iaVxa6cEtEkhVw4ygW9qLFy4Mosc398vwP3EGUGOG-u4Kix6KTiCpLhH0FrI0yttZA2xRx7uoxLnbvTu88uuoQLh5gQZ6Bv2aa2iVdPV5Me7UhcSMbky9Id-y7IrEhoYx_oOdX4yyHB0w7xFGLqqaKQ5ggZqrLdX1RmY16VsGiI"
                }
            ]
        },
        "org_jwks": {
            "keys": [
                {
                    "kty": "RSA",
                    "alg": "PS256",
                    "kid": "zBOcUM3PQ6tc74R_4dNdZbuUOrqJJRfbu9OlzBV8TSY",
                    "n": "ikHmLu-GUggwBhLf-69QIaeHXLfpX1ErMop9YDG0QvsMxnpyF0hVw3_AHCuXAGvy_q_8vr6b8IJmUM_lDgrVAr7nBjGWE8rTddKD9N19Ojk8fJLWbiKzS7vABcXf0sJJIcl1DqLfVWeM0vdmMqodTMrRiBL5ZDkdNSqRAh1FkLo1vdu0rYrD1prKdk5DClvGr0XKO5zUEO-2KSzwTH_ycZ-wV9uEvyVYD_Z6YYxmttEsHNxPsxvvCYx_hHwgaV_WKROM8X5-b4Gj9tH3COm_MQ1iccaRf5B39blKDmTIn7_7ZCv4Q6ERsjT0gjlNZAa-BekWk3FvoEnSrDoAW3JU2Q",
                    "e": "AQAB",
                    "d": "ApDwD-QgEwg2CfrSNPafTwyavCtpYGdI3Q6J1AiqzvPKxtP8J6H5qOAHZbkfu6Ev-K8KtX34tilZcvu02u1JCwdrkXzHS2qVllzYAv9pxQmjGDB_3I9LfXxIjLg27A9xR42uHPLZddlERCCAQVr7zGfW-pwC4dZsjBwpkQeQObwwFDT7IcVhottaO2JncwFI4EdrfafEnUO0-lzHWoENlThUS0NYYrBt3YS67lHh3fOsfDkAboy0gWfc0dLtyF0UlSJGJDzTBLBIoImJA7_QWdOVoUjbkkPvmsbJyyM4wN8yUJVNyWlAewUBNg2fiJ-aYY3vO2jh2lwXjcNibeM77Q",
                    "p": "wQo3XydDKZutZ_aBQWWVis93yd7kzSXntrQwq0jSBr2UgUItkW5x15SBd0Cuoe0hIMZ2P5MFRSxpWnSCTGdKaL3llMRKLDK5hCnxFkbQQYoyOIEvuEO5X1D39YICRX73QAl9u3dhq2QkdeWFOQsLfMWhau3AoPE322fYqPvBCs0",
                    "q": "t1mkgh9z1b0T_ALDKulrvv3I5MtdAF6gMWPidgaXwImsVhZDllKC8hX_gHF99IaUS4w-HUSXT0HrhRhyblmOZbWj8PLT_A3AdsFtWGBqLc63OGsldivujd_c3hQJcWCq4NOLRt83KX8n7eCpktTOE5EiGMP0V8vlfZW72UWhyj0",
                    "dp": "MHrrWxdWM73oN-LdpVnoy5q9H9K9rZPmdKkeS_YW4SB9ilTfctXE-3pNZXC2Ku6N0lhlXCQFP9EeiFwYWS3bryB55vnBEwaONtX9uTWBmeQmJrCzFljT1k9UZrEG9wMi_08i55Dc05lr2rwQ0Dmo4eYUWvFo3kKWX6Dd9dp8KcU",
                    "dq": "c3FN02BaXsmeO57Bo9M0tBy20Nf6xrDNzEtH22hrRB9rEwkRpSRurl6LcSQEWmIiHS9ALM1zN8QZtsOdyT06G3AyuRMrxhgihqNjZbHPKOhvFGbiP3WJzmqVdn7HM0vaS5TmrMj-wnH9ghliq8CxwEAxZ8Z5oo4PAPO2QydEp0E",
                    "qi": "K1Nu3RrzuMmUtJlF2ESQcfwQdSXBlkPc8Epr0OCWUa48d3V0iObMPVxtUFLNXOYoiKSSbOHqgUo1w5eCypGQpWRlUZmwaFDpFHFhxxfH8vdnMQl8WQvEBwAqMT2hTaMxmo5BkStUjupix5lxSTdgz0NjGBvUfnMC3FXdo2u1bnM"
                }
            ]
        }
    },
    "mtls2": {
        "cert": "-----BEGIN CERTIFICATE-----\nMIIHDzCCBfegAwIBAgIUEWTij/ViUwNpcRCg6CYf37n89XUwDQYJKoZIhvcNAQEL\nBQAwcTELMAkGA1UEBhMCQlIxHDAaBgNVBAoTE09wZW4gQmFua2luZyBCcmFzaWwx\nFTATBgNVBAsTDE9wZW4gQmFua2luZzEtMCsGA1UEAxMkT3BlbiBCYW5raW5nIFNB\nTkRCT1ggSXNzdWluZyBDQSAtIEcxMB4XDTIxMTEwMzEyMDMwMFoXDTIyMTIwMzEy\nMDMwMFowggExMQswCQYDVQQGEwJCUjELMAkGA1UECBMCU1AxEjAQBgNVBAcTCVNB\nTyBQQVVMTzEsMCoGA1UEChMjT3BlbiBCYW5raW5nIEJyYXNpbCAtIFBvcnRhbCAt\nIEh5c3QxLTArBgNVBAsTJDM5ZjA4YzZhLTU3OWUtNGNiYi05ZjgzLTQ5NzA4OTAy\nZDkwODEgMB4GA1UEAxMXbW9jay1wYWd0bzIucmFpZGlhbS5jb20xFzAVBgNVBAUT\nDjAyODcyMzY5MDAwMTEwMR4wHAYDVQQPExVOb24tQ29tbWVyY2lhbCBFbnRpdHkx\nEzARBgsrBgEEAYI3PAIBAxMCQlIxNDAyBgoJkiaJk/IsZAEBEyQ1YzExNjY1NC1j\nMWIyLTRjODctYTFiMi0xMDIwNDNiNzliMGEwggEiMA0GCSqGSIb3DQEBAQUAA4IB\nDwAwggEKAoIBAQDf2mt3Ok7glDvUIKU7l0IoLQq1gnrgSe0rLxfZSsMecv+uMrP7\nnkr6GLz/jRz/XyELUu/DvbbpvWxRirZe94t3+4nxWzcFHRQvb5Zl3ug4heeoGzRq\nzV094xavfZ+GCYz28tWDKbcOUn3hCxpbDqbpz0wk6zxTJJ8tysST0EPB8PIsFcxW\n0ItRbFW39brF0Sb9ru6UczoJKhI9eLBpV3SFxsb0BdUW+BDOLbARtaqQy9SD5Xf/\nvX4wVuJzXKsMBWW5xBRa3v3/Ku5koj1HRKkP9itu58/CmDQKinOUWAZV+pQQ1Tfd\ncuM4DCbc5DD9rzllWcQ5YL/nbIvKmIaPHiCFAgMBAAGjggLbMIIC1zAMBgNVHRMB\nAf8EAjAAMB0GA1UdDgQWBBRYIJpvu7n7z9AL7pSrKAr30zhtLjAfBgNVHSMEGDAW\ngBSGf1itF/WCtk60BbP7sM4RQ99MvjBMBggrBgEFBQcBAQRAMD4wPAYIKwYBBQUH\nMAGGMGh0dHA6Ly9vY3NwLnNhbmRib3gucGtpLm9wZW5iYW5raW5nYnJhc2lsLm9y\nZy5icjBLBgNVHR8ERDBCMECgPqA8hjpodHRwOi8vY3JsLnNhbmRib3gucGtpLm9w\nZW5iYW5raW5nYnJhc2lsLm9yZy5ici9pc3N1ZXIuY3JsMCIGA1UdEQQbMBmCF21v\nY2stcGFndG8yLnJhaWRpYW0uY29tMA4GA1UdDwEB/wQEAwIFoDATBgNVHSUEDDAK\nBggrBgEFBQcDAjCCAaEGA1UdIASCAZgwggGUMIIBkAYKKwYBBAGDui9kATCCAYAw\nggE2BggrBgEFBQcCAjCCASgMggEkVGhpcyBDZXJ0aWZpY2F0ZSBpcyBzb2xlbHkg\nZm9yIHVzZSB3aXRoIFJhaWRpYW0gU2VydmljZXMgTGltaXRlZCBhbmQgb3RoZXIg\ncGFydGljaXBhdGluZyBvcmdhbmlzYXRpb25zIHVzaW5nIFJhaWRpYW0gU2Vydmlj\nZXMgTGltaXRlZHMgVHJ1c3QgRnJhbWV3b3JrIFNlcnZpY2VzLiBJdHMgcmVjZWlw\ndCwgcG9zc2Vzc2lvbiBvciB1c2UgY29uc3RpdHV0ZXMgYWNjZXB0YW5jZSBvZiB0\naGUgUmFpZGlhbSBTZXJ2aWNlcyBMdGQgQ2VydGljaWNhdGUgUG9saWN5IGFuZCBy\nZWxhdGVkIGRvY3VtZW50cyB0aGVyZWluLjBEBggrBgEFBQcCARY4aHR0cDovL2Nw\ncy5zYW5kYm94LnBraS5vcGVuYmFua2luZ2JyYXNpbC5vcmcuYnIvcG9saWNpZXMw\nDQYJKoZIhvcNAQELBQADggEBAAA7YnrdGTSy6p4Wh72rstEZNKPwuIrbHOsJr4Ou\nYm9u6+GFgsb5Jd/KdU1PrDbJ7lznp5h/haSHU9EcfJU9q7kTAcGZbmzfnpI/b5+q\nv9UwCr27DgyJWaw5Dvy86EBOSIokExm/lPOGMqlWUqXFllkCwGBcReCdjQLVHR5X\nuF2GTYeV1YJrXz03uKccefuNsuefzaTzwy1ZhjMQCAfuMSDWgpJSumICvr1690LK\n/us/I8LYNsQ4eAUVRHcg36Wpt44WwbiKkgu8zpXpQMsHHw8edfMNilYWj0Q2bdCv\nQBYZSlVJTsTC3Npssdvvheoqpn8NbcJlAs2zVoWOsvx67K8=\n-----END CERTIFICATE-----",
        "key": "-----BEGIN PRIVATE KEY-----\nMIIEvgIBADANBgkqhkiG9w0BAQEFAASCBKgwggSkAgEAAoIBAQDf2mt3Ok7glDvU\nIKU7l0IoLQq1gnrgSe0rLxfZSsMecv+uMrP7nkr6GLz/jRz/XyELUu/DvbbpvWxR\nirZe94t3+4nxWzcFHRQvb5Zl3ug4heeoGzRqzV094xavfZ+GCYz28tWDKbcOUn3h\nCxpbDqbpz0wk6zxTJJ8tysST0EPB8PIsFcxW0ItRbFW39brF0Sb9ru6UczoJKhI9\neLBpV3SFxsb0BdUW+BDOLbARtaqQy9SD5Xf/vX4wVuJzXKsMBWW5xBRa3v3/Ku5k\noj1HRKkP9itu58/CmDQKinOUWAZV+pQQ1TfdcuM4DCbc5DD9rzllWcQ5YL/nbIvK\nmIaPHiCFAgMBAAECggEAXlwaR8BW5njlvVXjgLqSYxAVfwyY0jmnVTg9M9W9aPTt\nzRbHYo3HqiPKa2im7AjEC5tywQ6T73RvF/JCTMbJThLEg25BQ5EN5K8DdT6goc7k\nJysMjeayYrd6ZRAtsdkNyDz1fpwTc2CXekjtW6vR9SXyQW+9VojN5oYeFfbI0RN/\nixRTi0QdPDEmF0wgYHw//E7/iC9qgrngNu++gvHphzy0BJPTqLy1PCG0KigCOJR2\n2X7rIPeaUdZwWCE4G2GgXqvbckq7IVeEyn+rC5WoFbJc9P+StoO9++A6aR6aT1BB\nEkZuc/qqLBOCCdmproh9nCedd5jC8o/mmrVwWcZQMwKBgQDqDtl5jDp8Tn+Ahnrp\ns0cSaG5tA4sjgNw+biSwFrPoXSvOh0qkb5++sKL9Ddl7C2BZnxe/dzpnQHdB3No5\n9+eTXM+mVs34RijtaYSaKarrzi2pGuPFuXd2BhaCL6NnT43X3shdCGtvYPfyIlUh\n8zfr+YEvzsquUCzdsmeifER1WwKBgQD01qpf8dkfWcBhx8kFsWKTiHM1/SvNqDEv\nKxoueW9dy6EgNrnJ4ADiVgrDguNGn1scZCxcjCNLyA+b7kP7NWVjDCtbjOcu9/JR\ni9vjiTy44me5pvstnV6MFQd8fU3cv1V5/kM+guV4QOikRRh7AH5MKz2Mt+NCwLlF\n2LtFgLdHnwKBgQDE04f+tvXX4wtFwdFLBgAWcsup0PkI+iw8M9OWYQEZvoBARXV3\noobrjQ8DTso8tuxncWo/ELyEZ6niMR8y8E5Flh7o+sZqqlVwkPN50OBzPAcZ1gsF\nE1pqXeQ/xl/bWQMnLanA0nvGRf08GbMNwcKdJkyFL5kxzSptpMGR2n6XUQKBgFTg\nIdn23hznITEEcCSAFLsuPzpFFK1LlBlU6NOZl0i9sZKYRhm8hLHxv/N86UrvLUeP\nVm2Syx2XMgoNNBXesdH/QvyOwQngPGmWgVjEl39ERU7vmv16I2+OTrUSPy66SWhs\nA2WlPOVOIxfnOBBT4HSJPOIOUUMvykpzUqBKeb7jAoGBAOc3qSc5s78fYuHYMmh8\nrl7FrfIGPLgAtCHyrlL4cy0w6L+OUbHyXc8o8faDwZ7ihibhRwJWYhQw8Jqfpb1V\nsIE4aPNA7tRcQ4sISzeWeHYWHEVSmNIWpoDRuDLuT0l+2IiegqBKRdv3e5D8Fh5A\nugwIV0uL3vZLisDniRpkeuTQ\n-----END PRIVATE KEY-----",
        "ca": "-----BEGIN CERTIFICATE-----\nMIIEajCCA1KgAwIBAgIUdIYzEFdw7QJcrySyq6IiEwZfTfAwDQYJKoZIhvcNAQEL\nBQAwazELMAkGA1UEBhMCQlIxHDAaBgNVBAoTE09wZW4gQmFua2luZyBCcmFzaWwx\nFTATBgNVBAsTDE9wZW4gQmFua2luZzEnMCUGA1UEAxMeT3BlbiBCYW5raW5nIFJv\nb3QgU0FOREJPWCAtIEcxMB4XDTIwMTIxMTEwMDAwMFoXDTIzMTIxMTEwMDAwMFow\ncTELMAkGA1UEBhMCQlIxHDAaBgNVBAoTE09wZW4gQmFua2luZyBCcmFzaWwxFTAT\nBgNVBAsTDE9wZW4gQmFua2luZzEtMCsGA1UEAxMkT3BlbiBCYW5raW5nIFNBTkRC\nT1ggSXNzdWluZyBDQSAtIEcxMIIBIjANBgkqhkiG9w0BAQEFAAOCAQ8AMIIBCgKC\nAQEA6fX+272mHX5QAcDaWkVHFWjnDIcORNUJU3OuNyeuOYhlvXJWydrXe3O+cV+P\nS39faMj/nfem3GfJBE7Xn0bWA/8ksxSfrg1BUBJDge4YBBw+VflI3A0g1fk9wJ3H\nGInsvV4serRJ/ISJTfs0uRNugX+RrbkT/T0tup4vGd3Kl2sbwUdDjokuJNJHANeO\nDRkQ+ra+9Wht71FBlc07yPf7qtpaWHm6aS3s47OJD35ixkG4xiZuHsScxcVtlo1V\nW98P2cQfH9H2lll4wWlPTVHpPThB2EYrPhwcxDh8kHkkOHNkyHO/fYM47u7H4VeQ\nV75LXWKa7iWmZg+WhFb8TXSr/wIDAQABo4H/MIH8MA4GA1UdDwEB/wQEAwIBBjAP\nBgNVHRMBAf8EBTADAQH/MB0GA1UdDgQWBBSGf1itF/WCtk60BbP7sM4RQ99MvjAf\nBgNVHSMEGDAWgBSHE+yWPmLsIRwMSlY68iUM45TpyzBMBggrBgEFBQcBAQRAMD4w\nPAYIKwYBBQUHMAGGMGh0dHA6Ly9vY3NwLnNhbmRib3gucGtpLm9wZW5iYW5raW5n\nYnJhc2lsLm9yZy5icjBLBgNVHR8ERDBCMECgPqA8hjpodHRwOi8vY3JsLnNhbmRi\nb3gucGtpLm9wZW5iYW5raW5nYnJhc2lsLm9yZy5ici9pc3N1ZXIuY3JsMA0GCSqG\nSIb3DQEBCwUAA4IBAQBy4928pVPeiHItbneeOAsDoc4Obv5Q4tn0QpqTlSeCSBbH\nIURfEr/WaS8sv0JTbIPQEfiO/UtaN8Qxh7j5iVqTwTwgVaE/vDkHxGOen5YxAuyV\n1Fpm4W4oQyybiA6puHEBcteuiYZHppGSMus3bmFYTPE+9B0+W914VZeHDujJ2Y3Y\nMc32Q+PC+Zmv8RfaXp7+QCNYSXR5Ts3q3IesWGmlvAM5tLQi75JmzdWXJ1uKU4u3\nNrw5jY4UaOlvB5Re2BSmcjxdLT/5pApzkS+tO6lICnPAtk/Y6dOJ0YxQBMImtliY\np02yfwRaqP8WJ4CnwUHil3ZRt8U9I+psU8b4WV/3\n-----END CERTIFICATE-----\n-----BEGIN CERTIFICATE-----\nMIIDpjCCAo6gAwIBAgIUS3mWeRx1uG/SMl/ql55VwRtNz7wwDQYJKoZIhvcNAQEL\nBQAwazELMAkGA1UEBhMCQlIxHDAaBgNVBAoTE09wZW4gQmFua2luZyBCcmFzaWwx\nFTATBgNVBAsTDE9wZW4gQmFua2luZzEnMCUGA1UEAxMeT3BlbiBCYW5raW5nIFJv\nb3QgU0FOREJPWCAtIEcxMB4XDTIwMTIxMTEwMDAwMFoXDTI1MTIxMDEwMDAwMFow\nazELMAkGA1UEBhMCQlIxHDAaBgNVBAoTE09wZW4gQmFua2luZyBCcmFzaWwxFTAT\nBgNVBAsTDE9wZW4gQmFua2luZzEnMCUGA1UEAxMeT3BlbiBCYW5raW5nIFJvb3Qg\nU0FOREJPWCAtIEcxMIIBIjANBgkqhkiG9w0BAQEFAAOCAQ8AMIIBCgKCAQEAp50j\njNh0wu8ioziC1HuWqOfgXwxeiePiRGw5tKDqKIbC7XV1ghEcDiymTHHWWJSQ1LEs\nmYpZVwaos5Mrz2xJwytg8K5eqFqa7QvfOOul29bnzEFk+1gX/0nOYws3Lba9E7S+\nuPaUmfElF4r2lcCNL2f3F87RozqZf+DQBdGUzAt9n+ipY1JpqfI3KF/5qgRkPoIf\nJD+aj2Y1D6eYjs5uMRLU8FMYt0CCfv/Ak6mq4Y9/7CaMKp5qjlrrDux00IDpxoXG\nKx5cK0KgACb2UBZ98oDQxcGrbRIyp8VGmv68BkEQcm7NljP863uBVxtnVTpRwQ1x\nwYEbmSSyoonXy575wQIDAQABo0IwQDAOBgNVHQ8BAf8EBAMCAQYwDwYDVR0TAQH/\nBAUwAwEB/zAdBgNVHQ4EFgQUhxPslj5i7CEcDEpWOvIlDOOU6cswDQYJKoZIhvcN\nAQELBQADggEBAFoYqwoH7zvr4v0SQ/hWx/bWFRIcV/Rf6rEWGyT/moVAEjPbGH6t\nyHhbxh3RdGcPY7Pzn797lXDGRu0pHv+GAHUA1v1PewCp0IHYukmN5D8+Qumem6by\nHyONyUASMlY0lUOzx9mHVBMuj6u6kvn9xjL6xsPS+Cglv/3SUXUR0mMCYf963xnF\nBIRLTRlbykgJomUptVl/F5U/+8cD+lB/fcZPoQVI0kK0VV51jAODSIhS6vqzQzH4\ncpUmcPh4dy+7RzdTTktxOTXTqAy9/Yx+fk18O9qSQw1MKa9dDZ4YLnAQS2fJJqIE\n1DXIta0LpqM4pMoRMXvp9SLU0atVZLEu6Sc=\n-----END CERTIFICATE-----\n"
    },
    "browser": [
        {
            "match": "https://auth.mockbank.poc.raidiam.io/auth*",
            "tasks": [
                {
                    "task": "Login",
                    "optional": true,
                    "match": "https://auth.mockbank.poc.raidiam.io/interaction*",
                    "commands": [
                        [
                            "text",
                            "name",
                            "username",
                            "ralph.bragg@gmail.com",
                            "optional"
                        ],
                        [
                            "text",
                            "name",
                            "password",
                            "P@ssword01",
                            "optional"
                        ],
                        [
                            "click",
                            "class",
                            "btn"
                        ]
                    ]
                },
                {
                    "task": "Consent",
                    "optional": true,
                    "match": "https://auth.mockbank.poc.raidiam.io/interaction*",
                    "commands": [
                        [
                            "click",
                            "xpath",
                            "//label[@for='hidden-payments-291e5a29-49ed-401f-a583-193caa7aceee']/div[1]/div[1]"
                        ],
                        [
                            "click",
                            "id",
                            "consent"
                        ],
                        [
                            "click",
                            "class",
                            "btn"
                        ]
                    ]
                },
                {
                    "task": "Verify Complete",
                    "match": "*/test/*/callback*",
                    "commands": [
                        [
                            "wait",
                            "id",
                            "submission_complete",
                            10
                        ]
                    ]
                }
            ]
        }
    ],
    "override": {
        "payments-api-proxy-real-email-invalid-credior-proxy-test": {
            "resource": {
                "resourceUrl": "https://matls-api.mockbank.poc.raidiam.io",
                "consentUrl": "https://matls-api.mockbank.poc.raidiam.io/payments/v1/consents",
                "brazilCpf": "48847377765",
                "brazilPaymentConsent": {
                    "data": {
                        "loggedUser": {
                            "document": {
                                "identification": "76109277673",
                                "rel": "CPF"
                            }
                        },
                        "creditor": {
                            "personType": "PESSOA_NATURAL",
                            "cpfCnpj": "48847377765",
                            "name": "Marco Antonio de Brito"
                        },
                        "payment": {
                            "type": "PIX",
                            "date": "2021-01-01",
                            "currency": "BRL",
                            "amount": "10422.00",
                            "details": {
                                "localInstrument": "DICT",
                                "proxy": "12345678901",
                                "creditorAccount": {
                                    "ispb": "12345678",
                                    "issuer": "1774",
                                    "number": "1234567890",
                                    "accountType": "CACC"
                                }
                            }
                        },
                        "debtorAccount": {
                            "ispb": "12345678",
                            "issuer": "6272",
                            "number": "94088392",
                            "accountType": "CACC"
                        }
                    }
                },
                "brazilPixPayment": {
                    "data": {
                        "localInstrument": "DICT",
                        "payment": {
                            "amount": "100000.12",
                            "currency": "BRL"
                        },
                        "creditorAccount": {
                            "ispb": "12345678",
                            "issuer": "1774",
                            "number": "1234567890",
                            "accountType": "CACC"
                        },
                        "cnpjInitiator": "60545350000165",
                        "remittanceInformation": "Pagamento da nota XPTO035-002.",
                        "proxy": "12345678901"
                    }
                },
                "brazilOrganizationId": "74e929d9-33b6-4d85-8ba7-c146c867a817"
            }
        },
        "payments-api-proxy-test-incorrect-cpf": {
            "resource": {
                "resourceUrl": "https://matls-api.mockbank.poc.raidiam.io",
                "consentUrl": "https://matls-api.mockbank.poc.raidiam.io/payments/v1/consents",
                "brazilCpf": "48847377765",
                "brazilPaymentConsent": {
                    "data": {
                        "loggedUser": {
                            "document": {
                                "identification": "76109277673",
                                "rel": "CPF"
                            }
                        },
                        "creditor": {
                            "personType": "PESSOA_NATURAL",
                            "cpfCnpj": "48847377765",
                            "name": "Marco Antonio de Brito"
                        },
                        "payment": {
                            "type": "PIX",
                            "date": "2021-01-01",
                            "currency": "BRL",
                            "amount": "10422.00",
                            "details": {
                                "localInstrument": "DICT",
                                "proxy": "12345678901",
                                "creditorAccount": {
                                    "ispb": "12345678",
                                    "issuer": "1774",
                                    "number": "1234567890",
                                    "accountType": "CACC"
                                }
                            }
                        },
                        "debtorAccount": {
                            "ispb": "12345678",
                            "issuer": "6272",
                            "number": "94088392",
                            "accountType": "CACC"
                        }
                    }
                },
                "brazilPixPayment": {
                    "data": {
                        "localInstrument": "DICT",
                        "payment": {
                            "amount": "100000.12",
                            "currency": "BRL"
                        },
                        "creditorAccount": {
                            "ispb": "12345678",
                            "issuer": "1774",
                            "number": "1234567890",
                            "accountType": "CACC"
                        },
                        "cnpjInitiator": "60545350000165",
                        "remittanceInformation": "Pagamento da nota XPTO035-002.",
                        "proxy": "12345678901"
                    }
                },
                "brazilOrganizationId": "74e929d9-33b6-4d85-8ba7-c146c867a817"
            }
        },
        "payments-api-proxy-phone-number-proxy-test": {
            "resource": {
                "resourceUrl": "https://matls-api.mockbank.poc.raidiam.io",
                "consentUrl": "https://matls-api.mockbank.poc.raidiam.io/payments/v1/consents",
                "brazilCpf": "48847377765",
                "brazilPaymentConsent": {
                    "data": {
                        "loggedUser": {
                            "document": {
                                "identification": "76109277673",
                                "rel": "CPF"
                            }
                        },
                        "creditor": {
                            "personType": "PESSOA_NATURAL",
                            "cpfCnpj": "48847377765",
                            "name": "Marco Antonio de Brito"
                        },
                        "payment": {
                            "type": "PIX",
                            "date": "2021-01-01",
                            "currency": "BRL",
                            "amount": "1333.00",
                            "details": {
                                "localInstrument": "DICT",
                                "proxy": "12345678901",
                                "creditorAccount": {
                                    "ispb": "12345678",
                                    "issuer": "1774",
                                    "number": "1234567890",
                                    "accountType": "CACC"
                                }
                            }
                        },
                        "debtorAccount": {
                            "ispb": "12345678",
                            "issuer": "6272",
                            "number": "94088392",
                            "accountType": "CACC"
                        }
                    }
                },
                "brazilPixPayment": {
                    "data": {
                        "localInstrument": "DICT",
                        "payment": {
                            "amount": "1333.00",
                            "currency": "BRL"
                        },
                        "creditorAccount": {
                            "ispb": "12345678",
                            "issuer": "1774",
                            "number": "1234567890",
                            "accountType": "CACC"
                        },
                        "cnpjInitiator": "60545350000165",
                        "remittanceInformation": "Pagamento da nota XPTO035-002.",
                        "proxy": "12345678901"
                    }
                },
                "brazilOrganizationId": "74e929d9-33b6-4d85-8ba7-c146c867a817"
            }
        },
        "payments-api-proxy-fake-email-proxy-test": {
            "resource": {
                "resourceUrl": "https://matls-api.mockbank.poc.raidiam.io",
                "consentUrl": "https://matls-api.mockbank.poc.raidiam.io/payments/v1/consents",
                "brazilCpf": "48847377765",
                "brazilPaymentConsent": {
                    "data": {
                        "loggedUser": {
                            "document": {
                                "identification": "76109277673",
                                "rel": "CPF"
                            }
                        },
                        "creditor": {
                            "personType": "PESSOA_NATURAL",
                            "cpfCnpj": "48847377765",
                            "name": "Marco Antonio de Brito"
                        },
                        "payment": {
                            "type": "PIX",
                            "date": "2021-01-01",
                            "currency": "BRL",
                            "amount": "10422.00",
                            "details": {
                                "localInstrument": "DICT",
                                "proxy": "12345678901",
                                "creditorAccount": {
                                    "ispb": "12345678",
                                    "issuer": "1774",
                                    "number": "1234567890",
                                    "accountType": "CACC"
                                }
                            }
                        },
                        "debtorAccount": {
                            "ispb": "12345678",
                            "issuer": "6272",
                            "number": "94088392",
                            "accountType": "CACC"
                        }
                    }
                },
                "brazilPixPayment": {
                    "data": {
                        "localInstrument": "DICT",
                        "payment": {
                            "amount": "100000.12",
                            "currency": "BRL"
                        },
                        "creditorAccount": {
                            "ispb": "12345678",
                            "issuer": "1774",
                            "number": "1234567890",
                            "accountType": "CACC"
                        },
                        "cnpjInitiator": "60545350000165",
                        "remittanceInformation": "Pagamento da nota XPTO035-002.",
                        "proxy": "12345678901"
                    }
                },
                "brazilOrganizationId": "74e929d9-33b6-4d85-8ba7-c146c867a817"
            }
        }
    }
}
